1,1,1,53455435
2,1,2,24345
3,1,3,525
4,2,1,55
5,2,2,555
6,2,3,5555
7,3,1,255
8,3,2,22
9,3,3,255
10,4,1,2
11,4,2,22
12,4,3,2
13,5,1,5
14,5,2,5
15,5,3,525
16,6,1,22
17,6,2,44
18,6,3,53
19,7,1,24
20,7,2,5
21,7,3,25
22,8,1,43
23,8,2,3
24,8,3,55
25,9,1,43
26,9,2,44
27,9,3,52
28,10,1,24
29,10,2,45
30,10,3,32
